{
  "Serilog": {
    "Using": ["Serilog.Sinks.Console"],
    "MinimumLevel": {
      "Default": "Information",
      "Override": {
        "Microsoft": "Warning",
        "System": "Warning"
      }
    },
    "WriteTo": [
      { "Name": "Console" }
    ]
  }
}